<?xml version="1.0" ?>
<svg height="24" viewBox="0 0 24 24" width="24" xmlns="http://www.w3.org/2000/svg">
    <defs>
        <style>.cls-1{fill:none;stroke:#FFF;stroke-linecap:round;stroke-linejoin:round;stroke-width:2px;}</style>
    </defs>
    <title/>
    <g data-name="81.input" id="_81.input">
        <path class="cls-1" d="M8,7V3a1.959,1.959,0,0,1,2-2h8a3,3,0,0,1,3,3V20a3,3,0,0,1-3,3H10a1.959,1.959,0,0,1-2-2V17"/>
        <polyline class="cls-1" points="13 9 16 12 13 15"/>
        <line class="cls-1" x1="16" x2="3" y1="12" y2="12"/>
    </g>
</svg>