{
  "timeout": {
    "rec": 1000,
    "iface": 1000
  },
  "bks": {
    "name": "БКС-2",
    "server_addr": 254,
	"id_offset": 8,
	"bru_offset": 25
  },
  "ins": [
    {
      "ch": 0,
      "name": ""
    },
    {
      "ch": 1,
      "name": ""
    },
    {
      "ch": 2,
      "name": ""
    },
    {
      "ch": 3,
      "name": ""
    },
    {
      "ch": 4,
      "name": ""
    },
    {
      "ch": 5,
      "name": ""
    },
    {
      "ch": 6,
      "name": ""
    },
    {
      "ch": 7,
      "name": ""
    },
    {
      "ch": 8,
      "name": ""
    },
    {
      "ch": 9,
      "name": ""
    },
    {
      "ch": 10,
      "name": ""
    },
    {
      "ch": 11,
      "name": ""
    },
    {
      "ch": 12,
      "name": ""
    },
    {
      "ch": 13,
      "name": ""
    },
    {
      "ch": 14,
      "name": ""
    },
    {
      "ch": 15,
      "name": ""
    },
    {
      "ch": 16,
      "name": ""
    },
    {
      "ch": 17,
      "name": ""
    },
    {
      "ch": 18,
      "name": ""
    },
    {
      "ch": 19,
      "name": ""
    },
    {
      "ch": 20,
      "name": ""
    },
    {
      "ch": 21,
      "name": ""
    },
    {
      "ch": 22,
      "name": ""
    },
    {
      "ch": 23,
      "name": ""
    },
    {
      "ch": 24,
      "name": ""
    },
    {
      "ch": 25,
      "name": ""
    },
    {
      "ch": 26,
      "name": ""
    },
    {
      "ch": 27,
      "name": ""
    },
    {
      "ch": 28,
      "name": ""
    },
    {
      "ch": 29,
      "name": ""
    },
    {
      "ch": 30,
      "name": ""
    },
    {
      "ch": 31,
      "name": ""
    },
    {
      "ch": 32,
      "name": ""
    },
    {
      "ch": 33,
      "name": ""
    },
    {
      "ch": 34,
      "name": ""
    },
    {
      "ch": 35,
      "name": ""
    },
    {
      "ch": 36,
      "name": ""
    },
    {
      "ch": 37,
      "name": ""
    },
    {
      "ch": 38,
      "name": ""
    },
    {
      "ch": 39,
      "name": ""
    }
  ],
  "ins_cnt": 40,
  "outs": [
    {
      "ch": 0,
      "name": "Контроль 1",
      "target": ""
    },
    {
      "ch": 1,
      "name": "Контроль 2",
      "target": ""
    },
    {
      "ch": 2,
      "name": "Выход 1",
      "target": ""
    },
    {
      "ch": 3,
      "name": "Выход 2",
      "target": ""
    },
    {
      "ch": 4,
      "name": "",
      "target": ""
    },
    {
      "ch": 5,
      "name": "",
      "target": ""
    },
    {
      "ch": 6,
      "name": "",
      "target": ""
    },
    {
      "ch": 7,
      "name": "",
      "target": ""
    },
    {
      "ch": 8,
      "name": "",
      "target": ""
    },
    {
      "ch": 9,
      "name": "",
      "target": ""
    },
    {
      "ch": 10,
      "name": "",
      "target": ""
    },
    {
      "ch": 11,
      "name": "",
      "target": ""
    },
    {
      "ch": 12,
      "name": "",
      "target": ""
    },
    {
      "ch": 13,
      "name": "",
      "target": ""
    },
    {
      "ch": 14,
      "name": "",
      "target": ""
    },
    {
      "ch": 15,
      "name": "",
      "target": ""
    },
    {
      "ch": 16,
      "name": "",
      "target": ""
    },
    {
      "ch": 17,
      "name": "",
      "target": ""
    },
    {
      "ch": 18,
      "name": "",
      "target": ""
    },
    {
      "ch": 19,
      "name": "",
      "target": ""
    },
    {
      "ch": 20,
      "name": "",
      "target": ""
    },
    {
      "ch": 21,
      "name": "",
      "target": ""
    }
  ],
  "outs_cnt": 22,
  "rec": {
    "bandwidth": 1104,
    "bitrate": 64000,
    "enable": true,
    "format": 0,
    "signal": 3002,
    "store_days": 2
  },
  "time": {
    "ntp": "192.168.1.1",
	"rtc": "/dev/rtc0"
  },
  "events": {
	  "log_period": 7
  }
}